<?xml version="1.0" encoding="utf-8"?>
<!-- Generator: Adobe Illustrator 23.0.6, SVG Export Plug-In . SVG Version: 6.00 Build 0)  -->
<svg version="1.1"
	 id="Layer_1" xmlns:cc="http://creativecommons.org/ns#" xmlns:dc="http://purl.org/dc/elements/1.1/" xmlns:inkscape="http://www.inkscape.org/namespaces/inkscape" xmlns:rdf="http://www.w3.org/1999/02/22-rdf-syntax-ns#" xmlns:sodipodi="http://sodipodi.sourceforge.net/DTD/sodipodi-0.dtd" xmlns:svg="http://www.w3.org/2000/svg"
	 xmlns="http://www.w3.org/2000/svg" xmlns:xlink="http://www.w3.org/1999/xlink" x="0px" y="0px" viewBox="0 0 412 412"
	 style="enable-background:new 0 0 412 412;" xml:space="preserve">
<style type="text/css">
	.st0{fill:#75A1CB;}
	.st1{fill:#FFFFFF;}
	.st2{font-family:'Elysio';}
	.st3{font-size:40px;}
</style>
<sodipodi:namedview  bordercolor="#666666" borderopacity="1" gridtolerance="10" guidetolerance="10" id="namedview3817" inkscape:current-layer="Layer_1" inkscape:cx="206" inkscape:cy="206" inkscape:pageopacity="0" inkscape:pageshadow="2" inkscape:window-height="1014" inkscape:window-maximized="0" inkscape:window-width="1884" inkscape:window-x="15" inkscape:window-y="45" inkscape:zoom="0.4609375" objecttolerance="10" pagecolor="#ffffff" showgrid="false">
	</sodipodi:namedview>
<g id="g3814" transform="translate(-50,-50)">
	<path id="path3808" inkscape:connector-curvature="0" class="st0" d="M242.8,182.6c-1.6-0.9-3.5-1-5.8-0.2c-1.7,0.6-3,1.9-3.6,3.7
		c-0.5,1.2-0.5,2.5-0.3,3.8c1.2,1.6,2.4,3.2,3.5,4.8c1,0.4,2.1,0.6,3.2,0.3c2.1-0.5,3.6-2.8,3.2-5.1c0,0-0.2-1.2-0.9-1.4
		c0,0,0,0-0.1,0c-0.5-0.1-1.5,0.2-3.2,2.4l-0.4-0.4c1.6-2,2.9-2.9,3.8-2.6c1.1,0.3,1.3,1.8,1.3,1.9c0.4,2.6-1.3,5.3-3.6,5.8
		c-0.9,0.2-1.9,0.1-2.8-0.1c7.7,11.3,12.9,23.3,15.3,34.9c1-2.6,2.1-4.1,3.3-4c0-0.7,0.1-1.4,0.1-2.1c-1-10.6-7.1-28.7-8.1-33
		C246.5,186.5,244.9,183.8,242.8,182.6L242.8,182.6z"/>
	<path id="path3810" inkscape:connector-curvature="0" class="st0" d="M274.9,182.3c-2.3-0.8-4.2-0.7-5.8,0.2
		c-2.1,1.2-3.7,4-4.8,8.4c-1.1,4.3-7.1,22.5-8.1,33c0.1,0.8,0.1,1.6,0.2,2.4c1.1,0.6,2.2,2.6,3.1,5.6c2.2-12.1,7.4-24.8,15.6-36.6
		c-1,0.3-2,0.4-2.9,0.2c-2.3-0.5-4-3.2-3.6-5.8c0-0.1,0.2-1.6,1.3-1.9c1-0.3,2.3,0.6,3.8,2.6l-0.4,0.4c-1.7-2.2-2.7-2.5-3.2-2.4l0,0
		c-0.7,0.2-0.9,1.4-0.9,1.4c-0.4,2.3,1.1,4.7,3.2,5.1c1.1,0.3,2.2,0.1,3.3-0.3c1.1-1.6,2.2-3.1,3.4-4.6c0.2-1.3,0.2-2.7-0.3-3.9
		C277.9,184.2,276.6,182.9,274.9,182.3L274.9,182.3z"/>
	<path id="path3812" inkscape:connector-curvature="0" class="st0" d="M256,50C142.2,50,50,142.2,50,256s92.2,206,206,206
		s206-92.2,206-206S369.8,50,256,50z M371.8,262.1c-8.3,8.5-16.4,12.1-24.6,13.2c13.5,5.7,21.4,17.6,12.8,43.8
		c-15,45.8-25.6,45.2-53.7,43.5c-23.3-1.4-41.3-29.4-45.8-53.6c-0.7,6-2.2,9.9-4.5,10c-2.3,0-3.7-3.7-4.4-9.4
		c-4.7,24-22.6,51.6-45.7,53c-28.1,1.7-38.6,2.4-53.7-43.4c-8.6-26.3-0.8-38.2,12.7-43.8c-8.1-1.1-16.3-4.7-24.6-13.2
		c-16-16.3-22.7-93.8-16.1-100.3c23.2-22.8,68-14.9,100,17.8c3,3,5.7,6.2,8.2,9.4c-0.1-1.1,0.1-2.2,0.5-3.2c0.7-2,2.2-3.4,4-4
		c2.4-0.8,4.5-0.8,6.2,0.2c2.3,1.3,3.9,4.2,5,8.7c1,4.2,6.4,20.3,7.9,31.1c1.5-10.9,6.8-27,7.9-31.1c1.1-4.6,2.8-7.4,5-8.7
		c1.7-1,3.8-1,6.2-0.2c1.8,0.6,3.2,2,4,4c0.4,1,0.6,2.2,0.5,3.3c2.5-3.2,5.3-6.4,8.2-9.5c32.1-32.6,76.8-40.6,100-17.8
		C394.4,168.3,387.9,245.8,371.8,262.1L371.8,262.1z"/>
</g>
<text transform="matrix(1 0 0 1 121.0686 356.9541)" class="st1 st2 st3">Entomology</text>
<text transform="matrix(1 0 0 1 170.9751 74)" class="st1 st2 st3">Team </text>
</svg>
